4 Preparing and Transforming Data

It is a common adage that data analysts spend 80% of their time cleaning data and only 20% on value-add analysis. In this chapter we will show the basics of transforming data with the tidyverse package dplyr. Using these functions are the best way to reduce the overall amount of time spent on data cleaning and to create reproducible workflows whenever you receive new data.

4.1 Data Pipelines

Before diving into the functions designed to help you transform data, we must cover a perculiar looking operator, the pipe or %>%. You will repeatedly see the pipe (%>%) used in the code examples for this chapter and in other parts of the book. This operator takes output from the function on its left side and passes it onto the function on its right side. As an example we will look at the select() function. The first argument in the function is .data. Whenever you use the pipe operator it will pass that output into the function’s first argument, which in this case, is a tbl_df. This means that we must put a tbl_df object (a dataset) on the left side of the pipe operator and then the select() function on the right. The first argument is assumed to be the data, so the remaining argument inside the function, according to the documentation, should be one or more unquoted variable names or numbers representing the position of columns. If we put this together, the command looks like this:

library(tidyverse)
as_tibble(iris) %>% 
  select(Petal.Length, Sepal.Length, Species)
#> # A tibble: 150 x 3
#>   Petal.Length Sepal.Length Species
#>          <dbl>        <dbl> <fct>  
#> 1          1.4          5.1 setosa 
#> 2          1.4          4.9 setosa 
#> 3          1.3          4.7 setosa 
#> 4          1.5          4.6 setosa 
#> 5          1.4          5   setosa 
#> 6          1.7          5.4 setosa 
#> # ... with 144 more rows

The pipe is the glue for putting together multiple data transformations into a sequence. The benefits to using the pipe are that it reduces the amount of code needed to perform a sequence of operations.

4.2 Selecting

It is common to have a dataset with more columns than you need or have helper columns that you’ve created but no longer need. In the section above we demonstrated how to use the select() function with the pipe operator to pull out only the columns you want to work with. The select function has the nice feature of also being able to rename columns as you select them. For example,

as_tibble(iris) %>% 
  select(petal_length=Petal.Length, sepal_lenth=Sepal.Length, Species)
#> # A tibble: 150 x 3
#>   petal_length sepal_lenth Species
#>          <dbl>       <dbl> <fct>  
#> 1          1.4         5.1 setosa 
#> 2          1.4         4.9 setosa 
#> 3          1.3         4.7 setosa 
#> 4          1.5         4.6 setosa 
#> 5          1.4         5   setosa 
#> 6          1.7         5.4 setosa 
#> # ... with 144 more rows
…
as_tibble(iris) %>% 
  select(flower=Species, contains("Petal"), everything())
#> # A tibble: 150 x 5
#>   flower Petal.Length Petal.Width Sepal.Length Sepal.Width
#>   <fct>         <dbl>       <dbl>        <dbl>       <dbl>
#> 1 setosa          1.4         0.2          5.1         3.5
#> 2 setosa          1.4         0.2          4.9         3  
#> 3 setosa          1.3         0.2          4.7         3.2
#> 4 setosa          1.5         0.2          4.6         3.1
#> 5 setosa          1.4         0.2          5           3.6
#> 6 setosa          1.7         0.4          5.4         3.9
#> # ... with 144 more rows

FIND EXAMPLE THAT MATCHES TEXT ABOVE IT

SHOULD WE DISCUSS THE VARIANTS OF SELECT? The select_helpers make it convenient to specify many variables at once without having to type them all out individually.

4.3 Mutating

Mutating a variable means changing a variable in place or creating a new variable. You can think of this as modifying the dataset you provide to the function and the variables of the dataset are the part that is changing or “mutating”. In the following example we’ll show in one step how to change an existing variable and create a new one.

as_tibble(iris) %>% 
  mutate(Species = paste(Species, "flower"), 
         above_avg_sep_len = (Sepal.Length > mean(iris$Sepal.Length)))
#> # A tibble: 150 x 6
#>   Sepal.Length Sepal.Width Petal.Length Petal.Width Species
#>          <dbl>       <dbl>        <dbl>       <dbl> <chr>  
#> 1          5.1         3.5          1.4         0.2 setosa…
#> 2          4.9         3            1.4         0.2 setosa…
#> 3          4.7         3.2          1.3         0.2 setosa…
#> 4          4.6         3.1          1.5         0.2 setosa…
#> 5          5           3.6          1.4         0.2 setosa…
#> 6          5.4         3.9          1.7         0.4 setosa…
#> # ... with 144 more rows, and 1 more variable: above_avg_sep_len <lgl>

If you are a frequent user of Excel, the mutate() function is how you can implement the logic of an IF statement. In the example below we create a 0/1 indicator variable based on another column.

as_tibble(iris) %>% 
  mutate(Species = paste(Species, "flower"), 
         above_five_sep_len = ifelse(Sepal.Length > 5, 1, 0))
#> # A tibble: 150 x 6
#>   Sepal.Length Sepal.Width Petal.Length Petal.Width Species
#>          <dbl>       <dbl>        <dbl>       <dbl> <chr>  
#> 1          5.1         3.5          1.4         0.2 setosa…
#> 2          4.9         3            1.4         0.2 setosa…
#> 3          4.7         3.2          1.3         0.2 setosa…
#> 4          4.6         3.1          1.5         0.2 setosa…
#> 5          5           3.6          1.4         0.2 setosa…
#> 6          5.4         3.9          1.7         0.4 setosa…
#> # ... with 144 more rows, and 1 more variable: above_five_sep_len <dbl>
…
