R for Marketing Analytics
…
            R for Marketing Analytics

4.2 Selecting

It is common to have a dataset with more columns than you need or have helper columns that you’ve created but no longer need. In the section above we demonstrated how to use the select() function with the pipe operator to pull out only the columns you want to work with. The select function has the nice feature of also being able to rename columns as you select them. For example,

as_tibble(iris) %>% 
  select(petal_length=Petal.Length, sepal_lenth=Sepal.Length, Species)
#> # A tibble: 150 x 3
#>   petal_length sepal_lenth Species
#>          <dbl>       <dbl> <fct>  
#> 1          1.4         5.1 setosa 
#> 2          1.4         4.9 setosa 
#> 3          1.3         4.7 setosa 
#> 4          1.5         4.6 setosa 
#> 5          1.4         5   setosa 
#> 6          1.7         5.4 setosa 
#> # ... with 144 more rows
…
as_tibble(iris) %>% 
  select(flower=Species, contains("Petal"), everything())
#> # A tibble: 150 x 5
#>   flower Petal.Length Petal.Width Sepal.Length Sepal.Width
#>   <fct>         <dbl>       <dbl>        <dbl>       <dbl>
#> 1 setosa          1.4         0.2          5.1         3.5
#> 2 setosa          1.4         0.2          4.9         3  
#> 3 setosa          1.3         0.2          4.7         3.2
#> 4 setosa          1.5         0.2          4.6         3.1
#> 5 setosa          1.4         0.2          5           3.6
#> 6 setosa          1.7         0.4          5.4         3.9
#> # ... with 144 more rows
…
